^C:\USERS\ELYSCHIR\DOCUMENTS\NVP\PRATES VS NINJAS\X64\DEBUG\CHARACTER.OBJ|C:\USERS\ELYSCHIR\DOCUMENTS\NVP\PRATES VS NINJAS\X64\DEBUG\GAMEDRIVER.OBJ|C:\USERS\ELYSCHIR\DOCUMENTS\NVP\PRATES VS NINJAS\X64\DEBUG\GAMESTRUCTURE.OBJ|C:\USERS\ELYSCHIR\DOCUMENTS\NVP\PRATES VS NINJAS\X64\DEBUG\MVP.OBJ|C:\USERS\ELYSCHIR\DOCUMENTS\NVP\PRATES VS NINJAS\X64\DEBUG\NINJAS.OBJ|C:\USERS\ELYSCHIR\DOCUMENTS\NVP\PRATES VS NINJAS\X64\DEBUG\PIRATES.OBJ
/OUT:"C:\USERS\ELYSCHIR\DOCUMENTS\NVP\X64\DEBUG\PRATES VS NINJAS.EXE" /INCREMENTAL /NOLOGO KERNEL32.LIB USER32.LIB GDI32.LIB WINSPOOL.LIB COMDLG32.LIB ADVAPI32.LIB SHELL32.LIB OLE32.LIB OLEAUT32.LIB UUID.LIB ODBC32.LIB ODBCCP32.LIB /MANIFEST /MANIFESTUAC:"level='asInvoker' uiAccess='false'" /manifest:embed /DEBUG:FASTLINK /PDB:"C:\USERS\ELYSCHIR\DOCUMENTS\NVP\X64\DEBUG\PRATES VS NINJAS.PDB" /SUBSYSTEM:CONSOLE /TLBID:1 /DYNAMICBASE /NXCOMPAT /IMPLIB:"C:\USERS\ELYSCHIR\DOCUMENTS\NVP\X64\DEBUG\PRATES VS NINJAS.LIB" /MACHINE:X64 X64\DEBUG\CHARACTER.OBJX64\DEBUG\GAMEDRIVER.OBJX64\DEBUG\GAMESTRUCTURE.OBJX64\DEBUG\MVP.OBJX64\DEBUG\NINJAS.OBJX64\DEBUG\PIRATES.OBJ
^C:\USERS\ELYSCHIR\DOCUMENTS\NINJA_V_PIRATES\PRATES VS NINJAS\X64\DEBUG\CHARACTER.OBJ|C:\USERS\ELYSCHIR\DOCUMENTS\NINJA_V_PIRATES\PRATES VS NINJAS\X64\DEBUG\GAMEDRIVER.OBJ|C:\USERS\ELYSCHIR\DOCUMENTS\NINJA_V_PIRATES\PRATES VS NINJAS\X64\DEBUG\GAMESTRUCTURE.OBJ|C:\USERS\ELYSCHIR\DOCUMENTS\NINJA_V_PIRATES\PRATES VS NINJAS\X64\DEBUG\MVP.OBJ|C:\USERS\ELYSCHIR\DOCUMENTS\NINJA_V_PIRATES\PRATES VS NINJAS\X64\DEBUG\NINJAS.OBJ|C:\USERS\ELYSCHIR\DOCUMENTS\NINJA_V_PIRATES\PRATES VS NINJAS\X64\DEBUG\PIRATES.OBJ
/OUT:"C:\USERS\ELYSCHIR\DOCUMENTS\NINJA_V_PIRATES\X64\DEBUG\PRATES VS NINJAS.EXE" /INCREMENTAL /NOLOGO KERNEL32.LIB USER32.LIB GDI32.LIB WINSPOOL.LIB COMDLG32.LIB ADVAPI32.LIB SHELL32.LIB OLE32.LIB OLEAUT32.LIB UUID.LIB ODBC32.LIB ODBCCP32.LIB /MANIFEST /MANIFESTUAC:"level='asInvoker' uiAccess='false'" /manifest:embed /DEBUG:FASTLINK /PDB:"C:\USERS\ELYSCHIR\DOCUMENTS\NINJA_V_PIRATES\X64\DEBUG\PRATES VS NINJAS.PDB" /SUBSYSTEM:CONSOLE /TLBID:1 /DYNAMICBASE /NXCOMPAT /IMPLIB:"C:\USERS\ELYSCHIR\DOCUMENTS\NINJA_V_PIRATES\X64\DEBUG\PRATES VS NINJAS.LIB" /MACHINE:X64 X64\DEBUG\CHARACTER.OBJX64\DEBUG\GAMEDRIVER.OBJX64\DEBUG\GAMESTRUCTURE.OBJX64\DEBUG\MVP.OBJX64\DEBUG\NINJAS.OBJX64\DEBUG\PIRATES.OBJ
